{
    "id": 54684684,
    "name": "Hokejový kroužek",
    "public": false,
    "createdDatetime": "2021-11-10T17:17:20",
    "members": [
        {
            "id": 468768463,
            "name": "Karel Malý"
        },
        {
            "id": 846876846,
            "name": "Jiří Šťastný"
        }
    ]
}