{
    "id" : 515880,
    "name" : "Karel Malý",
    "address" : "",
    "email": "",
    "phone" : "",
    "groups" : [
        {
            "name" : "Fotbalový kroužek",
            "id": 354847425,
            "public": false
        },
        {
            "name" : "Hokejový kroužek",
            "id": 578677,
            "public": false
        },
        {
            "name" : "Veřejný plavecký kroužek",
            "id": 879877,
            "public": true
        }
    
    ]
}

